ISA/dump.vcd
$date
	Mon Jun 10 20:13:55 2024
$end
$version
	QuestaSim Version 2023.1
$end
$timescale
	1ps
$end

$scope module Top_tb $end

$scope module t1 $end
$var wire 1 ! Addr [7] $end
$var wire 1 " Addr [6] $end
$var wire 1 # Addr [5] $end
$var wire 1 $ Addr [4] $end
$var wire 1 % Addr [3] $end
$var wire 1 & Addr [2] $end
$var wire 1 ' Addr [1] $end
$var wire 1 ( Addr [0] $end
$var wire 1 ) Aluop [2] $end
$var wire 1 * Aluop [1] $end
$var wire 1 + Aluop [0] $end
$var wire 1 , Clk $end
$var wire 1 - DatA [7] $end
$var wire 1 . DatA [6] $end
$var wire 1 / DatA [5] $end
$var wire 1 0 DatA [4] $end
$var wire 1 1 DatA [3] $end
$var wire 1 2 DatA [2] $end
$var wire 1 3 DatA [1] $end
$var wire 1 4 DatA [0] $end
$var wire 1 5 DatB [7] $end
$var wire 1 6 DatB [6] $end
$var wire 1 7 DatB [5] $end
$var wire 1 8 DatB [4] $end
$var wire 1 9 DatB [3] $end
$var wire 1 : DatB [2] $end
$var wire 1 ; DatB [1] $end
$var wire 1 < DatB [0] $end
$var wire 1 = Jen $end
$var wire 1 > Jptr [2] $end
$var wire 1 ? Jptr [1] $end
$var wire 1 @ Jptr [0] $end
$var wire 1 A Jump [5] $end
$var wire 1 B Jump [4] $end
$var wire 1 C Jump [3] $end
$var wire 1 D Jump [2] $end
$var wire 1 E Jump [1] $end
$var wire 1 F Jump [0] $end
$var wire 1 G Ldr $end
$var wire 1 H PC [5] $end
$var wire 1 I PC [4] $end
$var wire 1 J PC [3] $end
$var wire 1 K PC [2] $end
$var wire 1 L PC [1] $end
$var wire 1 M PC [0] $end
$var wire 1 N Par $end
$var wire 1 O Ra [2] $end
$var wire 1 P Ra [1] $end
$var wire 1 Q Ra [0] $end
$var wire 1 R Rb [2] $end
$var wire 1 S Rb [1] $end
$var wire 1 T Rb [0] $end
$var wire 1 U Rdat [7] $end
$var wire 1 V Rdat [6] $end
$var wire 1 W Rdat [5] $end
$var wire 1 X Rdat [4] $end
$var wire 1 Y Rdat [3] $end
$var wire 1 Z Rdat [2] $end
$var wire 1 [ Rdat [1] $end
$var wire 1 \ Rdat [0] $end
$var wire 1 ] RdatA [7] $end
$var wire 1 ^ RdatA [6] $end
$var wire 1 _ RdatA [5] $end
$var wire 1 ` RdatA [4] $end
$var wire 1 a RdatA [3] $end
$var wire 1 b RdatA [2] $end
$var wire 1 c RdatA [1] $end
$var wire 1 d RdatA [0] $end
$var wire 1 e RdatB [7] $end
$var wire 1 f RdatB [6] $end
$var wire 1 g RdatB [5] $end
$var wire 1 h RdatB [4] $end
$var wire 1 i RdatB [3] $end
$var wire 1 j RdatB [2] $end
$var wire 1 k RdatB [1] $end
$var wire 1 l RdatB [0] $end
$var wire 1 m Reset $end
$var wire 1 n Rslt [7] $end
$var wire 1 o Rslt [6] $end
$var wire 1 p Rslt [5] $end
$var wire 1 q Rslt [4] $end
$var wire 1 r Rslt [3] $end
$var wire 1 s Rslt [2] $end
$var wire 1 t Rslt [1] $end
$var wire 1 u Rslt [0] $end
$var wire 1 v SCo $end
$var wire 1 w Str $end
$var wire 1 x Wd [2] $end
$var wire 1 y Wd [1] $end
$var wire 1 z Wd [0] $end
$var wire 1 { WdatD [7] $end
$var wire 1 | WdatD [6] $end
$var wire 1 } WdatD [5] $end
$var wire 1 ~ WdatD [4] $end
$var wire 1 !! WdatD [3] $end
$var wire 1 "! WdatD [2] $end
$var wire 1 #! WdatD [1] $end
$var wire 1 $! WdatD [0] $end
$var wire 1 %! WdatR [7] $end
$var wire 1 &! WdatR [6] $end
$var wire 1 '! WdatR [5] $end
$var wire 1 (! WdatR [4] $end
$var wire 1 )! WdatR [3] $end
$var wire 1 *! WdatR [2] $end
$var wire 1 +! WdatR [1] $end
$var wire 1 ,! WdatR [0] $end
$var wire 1 -! WenD $end
$var wire 1 .! WenR $end
$var wire 1 /! Zero $end
$var wire 1 0! mach_code [8] $end
$var wire 1 1! mach_code [7] $end
$var wire 1 2! mach_code [6] $end
$var wire 1 3! mach_code [5] $end
$var wire 1 4! mach_code [4] $end
$var wire 1 5! mach_code [3] $end
$var wire 1 6! mach_code [2] $end
$var wire 1 7! mach_code [1] $end
$var wire 1 8! mach_code [0] $end
$var reg 1 9! Done $end
$upscope $end
$upscope $end
$enddefinitions $end
#0
$dumpvars
1F
0E
1D
0C
0B
0A
xM
xL
xK
xJ
xI
xH
0+
0*
0)
xQ
xP
xO
xT
xS
xR
xz
xy
xx
0@
0?
0>
x8!
x7!
x6!
x5!
x4!
x3!
x2!
x1!
x0!
x4
x3
x2
x1
x0
x/
x.
x-
x<
x;
x:
x9
x8
x7
x6
x5
xu
xt
xs
xr
xq
xp
xo
xn
xd
xc
xb
xa
x`
x_
x^
x]
xl
xk
xj
xi
xh
xg
xf
xe
x,!
x+!
x*!
x)!
x(!
x'!
x&!
x%!
z$!
z#!
z"!
z!!
z~
z}
z|
z{
x\
x[
xZ
xY
xX
xW
xV
xU
z(
z'
z&
z%
z$
z#
z"
z!
z=
xN
0v
x/!
0.!
0-!
0G
0w
0m
0,
x9!
$end
#5000
1,
#10000
1m
0,
#15000
1,
0M
0L
0K
0J
0I
0H
18!
07!
16!
15!
14!
03!
12!
01!
00!
1z
0y
1x
0T
0S
0R
1Q
0P
1O
1.!
1d
0c
1b
0a
0`
0_
0^
0]
0l
0k
0j
0i
0h
0g
0f
0e
0<
0;
0:
09
08
07
06
05
14
03
12
01
00
0/
0.
0-
1+
1u
0t
1s
0r
0q
0p
0o
0n
0/!
0N
1,!
0+!
1*!
0)!
0(!
0'!
0&!
0%!
#20000
0m
0,
#25000
1,
1M
06!
02!
11!
0x
1R
0O
0b
1j
1:
02
0+
1*
#30000
0,
#35000
1,
1b
12
0M
1L
0s
1N
0*!
08!
17!
04!
12!
0z
1x
0R
0Q
1O
1G
0d
0j
0:
04
1+
0u
1s
0,!
1*!
#40000
0,
#45000
1,
1M
18!
05!
14!
02!
01!
10!
1z
0x
1Q
0O
0.!
0G
1w
1d
14
0+
0*
1)
0s
1/!
0N
0*!
#50000
0,
#55000
1,
0M
0L
1K
07!
16!
04!
12!
0z
1x
1S
0Q
1O
0w
0d
1k
1;
04
1+
1t
0/!
1N
1+!
#60000
0,
#65000
1,
1M
13!
02!
11!
1y
0x
1P
0O
1.!
1c
0b
13
02
0+
1*
0t
1/!
0N
0+!
#70000
0,
#75000
1,
0c
0k
0;
03
0M
1L
x8!
x7!
x6!
x5!
x4!
x3!
x2!
x1!
x0!
xz
xy
xx
xT
xS
xR
xQ
xP
xO
0.!
xd
xc
xb
xa
x`
x_
x^
x]
xl
xk
xj
xi
xh
xg
xf
xe
x<
x;
x:
x9
x8
x7
x6
x5
x4
x3
x2
x1
x0
x/
x.
x-
0*
0)
xu
xt
xs
xr
xq
xp
xo
xn
x/!
xN
x,!
x+!
x*!
x)!
x(!
x'!
x&!
x%!
#80000
0,
#85000
1,
1M
#90000
0,
#95000
1,
0M
0L
0K
1J
#100000
0,
#105000
1,
1M
#110000
0,
#115000
1,
0M
1L
#120000
0,
#125000
1,
1M
#130000
0,
#135000
1,
0M
0L
1K
#140000
0,
#145000
1,
1M
#150000
0,
#155000
1,
0M
1L
#160000
0,
#165000
1,
1M
#170000
0,
#175000
1,
0M
0L
0K
0J
1I
#180000
0,
#185000
1,
1M
#190000
0,
#195000
1,
0M
1L
#200000
0,
#205000
1,
1M
#210000
0,
#215000
1,
0M
0L
1K
#220000
0,
#225000
1,
1M
#230000
0,
#235000
1,
0M
1L
#240000
0,
#245000
1,
1M
#250000
0,
#255000
1,
0M
0L
0K
1J
#260000
0,
#265000
1,
1M
#270000
0,
#275000
1,
0M
1L
#280000
0,
#285000
1,
1M
#290000
0,
#295000
1,
0M
0L
1K
#300000
0,
#305000
1,
1M
#310000
0,
#315000
1,
0M
1L
#320000
0,
#325000
1,
1M
#330000
0,
#335000
1,
0M
0L
0K
0J
0I
1H
#340000
0,
#345000
1,
1M
#350000
0,
#355000
1,
0M
1L
#360000
0,
#365000
1,
1M
#370000
0,
#375000
1,
0M
0L
1K
#380000
0,
#385000
1,
1M
#390000
0,
#395000
1,
0M
1L
#400000
0,
#405000
1,
1M
#410000
0,
#415000
1,
0M
0L
0K
1J
#420000
0,
#425000
1,
1M
#430000
0,
#435000
1,
0M
1L
#440000
0,
#445000
1,
1M
#450000
0,
#455000
1,
0M
0L
1K
#460000
0,
#465000
1,
1M
#470000
0,
#475000
1,
0M
1L
#480000
0,
#485000
1,
1M
#490000
0,
#495000
1,
0M
0L
0K
0J
1I
#500000
0,
#505000
1,
1M
#510000
0,
#515000
1,
0M
1L
#520000
0,
#525000
1,
1M
#530000
0,
#535000
1,
0M
0L
1K
#540000
0,
#545000
1,
1M
#550000
0,
#555000
1,
0M
1L
#560000
0,
#565000
1,
1M
#570000
0,
#575000
1,
0M
0L
0K
1J
#580000
0,
#585000
1,
1M
#590000
0,
#595000
1,
0M
1L
#600000
0,
#605000
1,
1M
#610000
0,
#615000
1,
0M
0L
1K
#620000
0,
#625000
1,
1M
#630000
0,
#635000
1,
0M
1L
#640000
0,
#645000
1,
1M
#650000
0,
#655000
1,
0M
0L
0K
0J
0I
0H
18!
07!
16!
15!
14!
03!
12!
01!
00!
1z
0y
1x
0T
0S
0R
1Q
0P
1O
1.!
1d
0c
1b
0a
0`
0_
0^
0]
0l
0k
0j
0i
0h
0g
0f
0e
0<
0;
0:
09
08
07
06
05
14
03
12
01
00
0/
0.
0-
1+
1u
0t
1s
0r
0q
0p
0o
0n
0/!
0N
1,!
0+!
1*!
0)!
0(!
0'!
0&!
0%!
#660000
0,
#665000
1,
1M
06!
02!
11!
0x
1R
0O
1j
1:
0+
1*
0s
1N
0*!
#670000
0,
#675000
1,
0b
02
0M
1L
1s
0N
1*!
08!
17!
04!
12!
0z
1x
0R
0Q
1O
1G
0d
1b
0j
0:
04
12
1+
0u
1N
0,!
#680000
0,
#685000
1,
1M
18!
05!
14!
02!
01!
10!
1z
0x
1Q
0O
0.!
0G
1w
1d
0b
14
02
0+
0*
1)
0s
1/!
0N
0*!
#690000
0,
#695000
1,
0M
0L
1K
07!
16!
04!
12!
0z
1x
1S
0Q
1O
0w
0d
1b
04
12
1+
#700000
0,
#705000
1,
1M
13!
02!
11!
1y
0x
1P
0O
1.!
0b
02
0+
1*
#710000
0,
#715000
1,
0M
1L
x8!
x7!
x6!
x5!
x4!
x3!
x2!
x1!
x0!
xz
xy
xx
xT
xS
xR
xQ
xP
xO
0.!
xd
xc
xb
xa
x`
x_
x^
x]
xl
xk
xj
xi
xh
xg
xf
xe
x<
x;
x:
x9
x8
x7
x6
x5
x4
x3
x2
x1
x0
x/
x.
x-
0*
0)
xu
xt
xs
xr
xq
xp
xo
xn
x/!
xN
x,!
x+!
x*!
x)!
x(!
x'!
x&!
x%!
#720000
0,
#725000
1,
1M
#730000
0,
#735000
1,
0M
0L
0K
1J
#740000
0,
#745000
1,
1M
#750000
0,
#755000
1,
0M
1L
#760000
0,
#765000
1,
1M
#770000
0,
#775000
1,
0M
0L
1K
#780000
0,
#785000
1,
1M
#790000
0,
#795000
1,
0M
1L
#800000
0,
#805000
1,
1M
#810000
0,
#815000
1,
0M
0L
0K
0J
1I
#820000
0,
#825000
1,
1M
#830000
0,
#835000
1,
0M
1L
#840000
0,
#845000
1,
1M
#850000
0,
#855000
1,
0M
0L
1K
#860000
0,
#865000
1,
1M
#870000
0,
#875000
1,
0M
1L
#880000
0,
#885000
1,
1M
#890000
0,
#895000
1,
0M
0L
0K
1J
#900000
0,
#905000
1,
1M
#910000
0,
#915000
1,
0M
1L
#920000
0,
#925000
1,
1M
#930000
0,
#935000
1,
0M
0L
1K
#940000
0,
#945000
1,
1M
#950000
0,
#955000
1,
0M
1L
#960000
0,
#965000
1,
1M
#970000
0,
#975000
1,
0M
0L
0K
0J
0I
1H
#980000
0,
#985000
1,
1M
#990000
0,
#995000
1,
0M
1L
#1000000
0,
#1005000
1,
1M
#1010000
0,
#1015000
1,
0M
0L
1K
#1020000
0,
#1025000
1,
1M
#1030000
0,
#1035000
1,
0M
1L
#1040000
0,
#1045000
1,
1M
#1050000
0,
#1055000
1,
0M
0L
0K
1J
#1060000
0,
#1065000
1,
1M
#1070000
0,
#1075000
1,
0M
1L
#1080000
0,
#1085000
1,
1M
#1090000
0,
#1095000
1,
0M
0L
1K
#1100000
0,
#1105000
1,
1M
#1110000
0,
#1115000
1,
0M
1L
#1120000
0,
#1125000
1,
1M
#1130000
0,
#1135000
1,
0M
0L
0K
0J
1I
#1140000
0,
#1145000
1,
1M
#1150000
0,
#1155000
1,
0M
1L
#1160000
0,
#1165000
1,
1M
#1170000
0,
#1175000
1,
0M
0L
1K
#1180000
0,
#1185000
1,
1M
#1190000
0,
#1195000
1,
0M
1L
#1200000
0,
#1205000
1,
1M
#1210000
0,
#1215000
1,
0M
0L
0K
1J
#1220000
0,
#1225000
1,
1M
#1230000
0,
#1235000
1,
0M
1L
#1240000
0,
#1245000
1,
1M
#1250000
0,
#1255000
1,
0M
0L
1K
#1260000
0,
#1265000
1,
1M
#1270000
0,
#1275000
1,
0M
1L
#1280000
0,
#1285000
1,
1M
#1290000
0,
#1295000
1,
0M
0L
0K
0J
0I
0H
18!
07!
16!
15!
14!
03!
12!
01!
00!
1z
0y
1x
0T
0S
0R
1Q
0P
1O
1.!
1d
0c
1b
0a
0`
0_
0^
0]
0l
0k
0j
0i
0h
0g
0f
0e
0<
0;
0:
09
08
07
06
05
14
03
12
01
00
0/
0.
0-
1+
1u
0t
1s
0r
0q
0p
0o
0n
0/!
0N
1,!
0+!
1*!
0)!
0(!
0'!
0&!
0%!
#1300000
0,
#1305000
1,
1M
06!
02!
11!
0x
1R
0O
0b
1j
1:
02
0+
1*
#1310000
0,
#1315000
1,
1b
12
0M
1L
0s
1N
0*!
08!
17!
04!
12!
0z
1x
0R
0Q
1O
1G
0d
0j
0:
04
1+
0u
1s
0,!
1*!
#1320000
0,
#1325000
1,
1M
18!
05!
14!
02!
01!
10!
1z
0x
1Q
0O
0.!
0G
1w
1d
14
0+
0*
1)
0s
1/!
0N
0*!
#1330000
0,
#1335000
1,
0M
0L
1K
07!
16!
04!
12!
0z
1x
1S
0Q
1O
0w
0d
04
1+
#1340000
0,
#1345000
1,
1M
13!
02!
11!
1y
0x
1P
0O
1.!
0b
02
0+
1*
#1350000
0,
#1355000
1,
0M
1L
x8!
x7!
x6!
x5!
x4!
x3!
x2!
x1!
x0!
xz
xy
xx
xT
xS
xR
xQ
xP
xO
0.!
xd
xc
xb
xa
x`
x_
x^
x]
xl
xk
xj
xi
xh
xg
xf
xe
x<
x;
x:
x9
x8
x7
x6
x5
x4
x3
x2
x1
x0
x/
x.
x-
0*
0)
xu
xt
xs
xr
xq
xp
xo
xn
x/!
xN
x,!
x+!
x*!
x)!
x(!
x'!
x&!
x%!
#1360000
0,
#1365000
1,
1M
#1370000
0,
#1375000
1,
0M
0L
0K
1J
#1380000
0,
#1385000
1,
1M
#1390000
0,
#1395000
1,
0M
1L
#1400000
0,
#1405000
1,
1M
#1410000
0,
#1415000
1,
0M
0L
1K
#1420000
0,
#1425000
1,
1M
#1430000
0,
#1435000
1,
0M
1L
#1440000
0,
#1445000
1,
1M
#1450000
0,
#1455000
1,
0M
0L
0K
0J
1I
#1460000
0,
#1465000
1,
1M
#1470000
0,
#1475000
1,
0M
1L
#1480000
0,
#1485000
1,
1M
#1490000
0,
#1495000
1,
0M
0L
1K
#1500000
0,
#1505000
1,
1M
#1510000
0,
#1515000
1,
0M
1L
#1520000
0,
#1525000
1,
1M
#1530000
0,
#1535000
1,
0M
0L
0K
1J
#1540000
0,
#1545000
1,
1M
#1550000
0,
#1555000
1,
0M
1L
#1560000
0,
#1565000
1,
1M
#1570000
0,
#1575000
1,
0M
0L
1K
#1580000
0,
#1585000
1,
1M
#1590000
0,
#1595000
1,
0M
1L
#1600000
0,
#1605000
1,
1M
#1610000
0,
#1615000
1,
0M
0L
0K
0J
0I
1H
#1620000
0,
#1625000
1,
1M
#1630000
0,
#1635000
1,
0M
1L
#1640000
0,
#1645000
1,
1M
#1650000
0,
#1655000
1,
0M
0L
1K
#1660000
0,
#1665000
1,
1M
#1670000
0,
#1675000
1,
0M
1L
#1680000
0,
#1685000
1,
1M
#1690000
0,
#1695000
1,
0M
0L
0K
1J
#1700000
0,
#1705000
1,
1M
#1710000
0,
#1715000
1,
0M
1L
#1720000
0,
#1725000
1,
1M
#1730000
0,
#1735000
1,
0M
0L
1K
#1740000
0,
#1745000
1,
1M
#1750000
0,
#1755000
1,
0M
1L
#1760000
0,
#1765000
1,
1M
#1770000
0,
#1775000
1,
0M
0L
0K
0J
1I
#1780000
0,
#1785000
1,
1M
#1790000
0,
#1795000
1,
0M
1L
#1800000
0,
#1805000
1,
1M
#1810000
0,
#1815000
1,
0M
0L
1K
#1820000
0,
#1825000
1,
1M
#1830000
0,
#1835000
1,
0M
1L
#1840000
0,
#1845000
1,
1M
#1850000
0,
#1855000
1,
0M
0L
0K
1J
#1860000
0,
#1865000
1,
1M
#1870000
0,
#1875000
1,
0M
1L
#1880000
0,
#1885000
1,
1M
#1890000
0,
#1895000
1,
0M
0L
1K
#1900000
0,
#1905000
1,
1M
#1910000
0,
#1915000
1,
0M
1L
#1920000
0,
#1925000
1,
1M
#1930000
0,
#1935000
1,
0M
0L
0K
0J
0I
0H
18!
07!
16!
15!
14!
03!
12!
01!
00!
1z
0y
1x
0T
0S
0R
1Q
0P
1O
1.!
1d
0c
1b
0a
0`
0_
0^
0]
0l
0k
0j
0i
0h
0g
0f
0e
0<
0;
0:
09
08
07
06
05
14
03
12
01
00
0/
0.
0-
1+
1u
0t
1s
0r
0q
0p
0o
0n
0/!
0N
1,!
0+!
1*!
0)!
0(!
0'!
0&!
0%!
#1940000
0,
#1945000
1,
1M
06!
02!
11!
0x
1R
0O
1j
1:
0+
1*
0s
1N
0*!
#1950000
0,
#1955000
1,
0b
02
0M
1L
1s
0N
1*!
08!
17!
04!
12!
0z
1x
0R
0Q
1O
1G
0d
1b
0j
0:
04
12
1+
0u
1N
0,!
#1960000
0,
#1965000
1,
1M
18!
05!
14!
02!
01!
10!
1z
0x
1Q
0O
0.!
0G
1w
1d
0b
14
02
0+
0*
1)
0s
1/!
0N
0*!
#1970000
0,
#1975000
1,
0M
0L
1K
07!
16!
04!
12!
0z
1x
1S
0Q
1O
0w
0d
1b
04
12
1+
#1980000
0,
#1985000
1,
1M
13!
02!
11!
1y
0x
1P
0O
1.!
0b
02
0+
1*
#1990000
0,
#1995000
1,
0M
1L
x8!
x7!
x6!
x5!
x4!
x3!
x2!
x1!
x0!
xz
xy
xx
xT
xS
xR
xQ
xP
xO
0.!
xd
xc
xb
xa
x`
x_
x^
x]
xl
xk
xj
xi
xh
xg
xf
xe
x<
x;
x:
x9
x8
x7
x6
x5
x4
x3
x2
x1
x0
x/
x.
x-
0*
0)
xu
xt
xs
xr
xq
xp
xo
xn
x/!
xN
x,!
x+!
x*!
x)!
x(!
x'!
x&!
x%!
#2000000
0,
#2005000
1,
1M
#2010000
0,
#2015000
1,
0M
0L
0K
1J
