ISA/qrun.log
QuestaSim-64 qrun 2023.1 Utility 2023.01 Jan 23 2023
Start time: 20:13:53 on Jun 10,2024
qrun -batch -access=rw+/. -timescale 1ns/1ns -mfcu design.sv testbench.sv -voptargs="+acc=npr" -do " run -all; exit" 
Creating library 'qrun.out/work'.
QuestaSim-64 vlog 2023.1 Compiler 2023.01 Jan 23 2023
Start time: 20:13:53 on Jun 10,2024
vlog -timescale 1ns/1ns -mfcu design.sv testbench.sv -work qrun.out/work -csession=incr -writesessionid "+qrun.out/top_dus" -statslog qrun.out/stats_log 
-- Compiling module ALU
-- Compiling module Ctrl
-- Compiling module DMem
-- Compiling module InstROM
-- Compiling module JLUT
-- Compiling module ProgCtr
-- Compiling module RegFile
-- Compiling module Top
-- Compiling module Top_tb

Top level modules:
	Top_tb
End time: 20:13:54 on Jun 10,2024, Elapsed time: 0:00:01
Errors: 0, Warnings: 0
QuestaSim-64 vopt 2023.1 Compiler 2023.01 Jan 23 2023
** Warning: (vopt-10587) Some optimizations are turned off because the +acc switch is in effect. This will cause your simulation to run slowly. Please use -access/-debug to maintain needed visibility.
Start time: 20:13:54 on Jun 10,2024
vopt -access=rw+/. -timescale 1ns/1ns -mfcu "+acc=npr" -findtoplevels /home/runner/qrun.out/work+0+ -work qrun.out/work -statslog qrun.out/stats_log -o qrun_opt 

Top level modules:
	Top_tb

Analyzing design...
-- Loading module Top_tb
-- Loading module Top
-- Loading module JLUT
-- Loading module ProgCtr
-- Loading module InstROM
-- Loading module Ctrl
-- Loading module RegFile
-- Loading module ALU
-- Loading module DMem
Optimizing 9 design-units (inlining 0/9 module instances):
-- Optimizing module Ctrl(fast)
-- Optimizing module Top(fast)
-- Optimizing module ALU(fast)
-- Optimizing module RegFile(fast)
-- Optimizing module Top_tb(fast)
-- Optimizing module DMem(fast)
-- Optimizing module ProgCtr(fast)
-- Optimizing module JLUT(fast)
-- Optimizing module InstROM(fast)
Optimized design name is qrun_opt
End time: 20:13:54 on Jun 10,2024, Elapsed time: 0:00:00
Errors: 0, Warnings: 1
# vsim -batch -voptargs="+acc=npr" -lib qrun.out/work -do " run -all; exit" -statslog qrun.out/stats_log qrun_opt -appendlog -l qrun.log -csession=incr 
# Start time: 20:13:54 on Jun 10,2024
# //  Questa Sim-64
# //  Version 2023.1 linux_x86_64 Jan 23 2023
# //
# //  Copyright 1991-2023 Mentor Graphics Corporation
# //  All Rights Reserved.
# //
# //  QuestaSim and its associated documentation contain trade
# //  secrets and commercial or financial information that are the property of
# //  Mentor Graphics Corporation and are privileged, confidential,
# //  and exempt from disclosure under the Freedom of Information Act,
# //  5 U.S.C. Section 552. Furthermore, this information
# //  is prohibited from disclosure under the Trade Secrets Act,
# //  18 U.S.C. Section 1905.
# //
# Loading sv_std.std
# Loading work.Top_tb(fast)
# Loading work.Top(fast)
# Loading work.JLUT(fast)
# Loading work.ProgCtr(fast)
# Loading work.InstROM(fast)
# Loading work.Ctrl(fast)
# Loading work.RegFile(fast)
# Loading work.ALU(fast)
# Loading work.DMem(fast)
# 
# run -all
# Time: 5000 | Read Register A: x | Data: x
# Time: 5000 | Read Register B: x | Data: x
# Time: 15000 | Read Register A: x | Data: x
# Time: 15000 | Read Register B: x | Data: x
# Time: 25000 | Read Register A: 5 | Data: 5
# Time: 25000 | Read Register B: 0 | Data: 0
# Time: 25000 | Write to Register: 5 | Data: 5
# Time: 35000 | Read Register A: 1 | Data: 1
# Time: 35000 | Read Register B: 4 | Data: 4
# Time: 35000 | Write to Register: 1 | Data: 5
# Time: 45000 | Read Register A: 4 | Data: 4
# Time: 45000 | Read Register B: 0 | Data: 0
# Time: 45000 | Write to Register: 4 | Data: 4
# Time: 55000 | Read Register A: 1 | Data: 5
# Time: 55000 | Read Register B: 0 | Data: 0
# Time: 65000 | Read Register A: 4 | Data: 4
# Time: 65000 | Read Register B: 2 | Data: 2
# Time: 75000 | Read Register A: 2 | Data: 2
# Time: 75000 | Read Register B: 2 | Data: 2
# Time: 75000 | Write to Register: 2 | Data: 0
# Time: 85000 | Read Register A: x | Data: x
# Time: 85000 | Read Register B: x | Data: x
# Time: 95000 | Read Register A: x | Data: x
# Time: 95000 | Read Register B: x | Data: x
# Time: 105000 | Read Register A: x | Data: x
# Time: 105000 | Read Register B: x | Data: x
# Time: 115000 | Read Register A: x | Data: x
# Time: 115000 | Read Register B: x | Data: x
# Time: 125000 | Read Register A: x | Data: x
# Time: 125000 | Read Register B: x | Data: x
# Time: 135000 | Read Register A: x | Data: x
# Time: 135000 | Read Register B: x | Data: x
# Time: 145000 | Read Register A: x | Data: x
# Time: 145000 | Read Register B: x | Data: x
# Time: 155000 | Read Register A: x | Data: x
# Time: 155000 | Read Register B: x | Data: x
# Time: 165000 | Read Register A: x | Data: x
# Time: 165000 | Read Register B: x | Data: x
# Time: 175000 | Read Register A: x | Data: x
# Time: 175000 | Read Register B: x | Data: x
# Time: 185000 | Read Register A: x | Data: x
# Time: 185000 | Read Register B: x | Data: x
# Time: 195000 | Read Register A: x | Data: x
# Time: 195000 | Read Register B: x | Data: x
# Time: 205000 | Read Register A: x | Data: x
# Time: 205000 | Read Register B: x | Data: x
# Time: 215000 | Read Register A: x | Data: x
# Time: 215000 | Read Register B: x | Data: x
# Time: 225000 | Read Register A: x | Data: x
# Time: 225000 | Read Register B: x | Data: x
# Time: 235000 | Read Register A: x | Data: x
# Time: 235000 | Read Register B: x | Data: x
# Time: 245000 | Read Register A: x | Data: x
# Time: 245000 | Read Register B: x | Data: x
# Time: 255000 | Read Register A: x | Data: x
# Time: 255000 | Read Register B: x | Data: x
# Time: 265000 | Read Register A: x | Data: x
# Time: 265000 | Read Register B: x | Data: x
# Time: 275000 | Read Register A: x | Data: x
# Time: 275000 | Read Register B: x | Data: x
# Time: 285000 | Read Register A: x | Data: x
# Time: 285000 | Read Register B: x | Data: x
# Time: 295000 | Read Register A: x | Data: x
# Time: 295000 | Read Register B: x | Data: x
# Time: 305000 | Read Register A: x | Data: x
# Time: 305000 | Read Register B: x | Data: x
# Time: 315000 | Read Register A: x | Data: x
# Time: 315000 | Read Register B: x | Data: x
# Time: 325000 | Read Register A: x | Data: x
# Time: 325000 | Read Register B: x | Data: x
# Time: 335000 | Read Register A: x | Data: x
# Time: 335000 | Read Register B: x | Data: x
# Time: 345000 | Read Register A: x | Data: x
# Time: 345000 | Read Register B: x | Data: x
# Time: 355000 | Read Register A: x | Data: x
# Time: 355000 | Read Register B: x | Data: x
# Time: 365000 | Read Register A: x | Data: x
# Time: 365000 | Read Register B: x | Data: x
# Time: 375000 | Read Register A: x | Data: x
# Time: 375000 | Read Register B: x | Data: x
# Time: 385000 | Read Register A: x | Data: x
# Time: 385000 | Read Register B: x | Data: x
# Time: 395000 | Read Register A: x | Data: x
# Time: 395000 | Read Register B: x | Data: x
# Time: 405000 | Read Register A: x | Data: x
# Time: 405000 | Read Register B: x | Data: x
# Time: 415000 | Read Register A: x | Data: x
# Time: 415000 | Read Register B: x | Data: x
# Time: 425000 | Read Register A: x | Data: x
# Time: 425000 | Read Register B: x | Data: x
# Time: 435000 | Read Register A: x | Data: x
# Time: 435000 | Read Register B: x | Data: x
# Time: 445000 | Read Register A: x | Data: x
# Time: 445000 | Read Register B: x | Data: x
# Time: 455000 | Read Register A: x | Data: x
# Time: 455000 | Read Register B: x | Data: x
# Time: 465000 | Read Register A: x | Data: x
# Time: 465000 | Read Register B: x | Data: x
# Time: 475000 | Read Register A: x | Data: x
# Time: 475000 | Read Register B: x | Data: x
# Time: 485000 | Read Register A: x | Data: x
# Time: 485000 | Read Register B: x | Data: x
# Time: 495000 | Read Register A: x | Data: x
# Time: 495000 | Read Register B: x | Data: x
# Time: 505000 | Read Register A: x | Data: x
# Time: 505000 | Read Register B: x | Data: x
# Time: 515000 | Read Register A: x | Data: x
# Time: 515000 | Read Register B: x | Data: x
# Time: 525000 | Read Register A: x | Data: x
# Time: 525000 | Read Register B: x | Data: x
# Time: 535000 | Read Register A: x | Data: x
# Time: 535000 | Read Register B: x | Data: x
# Time: 545000 | Read Register A: x | Data: x
# Time: 545000 | Read Register B: x | Data: x
# Time: 555000 | Read Register A: x | Data: x
# Time: 555000 | Read Register B: x | Data: x
# Time: 565000 | Read Register A: x | Data: x
# Time: 565000 | Read Register B: x | Data: x
# Time: 575000 | Read Register A: x | Data: x
# Time: 575000 | Read Register B: x | Data: x
# Time: 585000 | Read Register A: x | Data: x
# Time: 585000 | Read Register B: x | Data: x
# Time: 595000 | Read Register A: x | Data: x
# Time: 595000 | Read Register B: x | Data: x
# Time: 605000 | Read Register A: x | Data: x
# Time: 605000 | Read Register B: x | Data: x
# Time: 615000 | Read Register A: x | Data: x
# Time: 615000 | Read Register B: x | Data: x
# Time: 625000 | Read Register A: x | Data: x
# Time: 625000 | Read Register B: x | Data: x
# Time: 635000 | Read Register A: x | Data: x
# Time: 635000 | Read Register B: x | Data: x
# Time: 645000 | Read Register A: x | Data: x
# Time: 645000 | Read Register B: x | Data: x
# Time: 655000 | Read Register A: x | Data: x
# Time: 655000 | Read Register B: x | Data: x
# Time: 665000 | Read Register A: 5 | Data: 5
# Time: 665000 | Read Register B: 0 | Data: 0
# Time: 665000 | Write to Register: 5 | Data: 5
# Time: 675000 | Read Register A: 1 | Data: 5
# Time: 675000 | Read Register B: 4 | Data: 4
# Time: 675000 | Write to Register: 1 | Data: 1
# Time: 685000 | Read Register A: 4 | Data: 4
# Time: 685000 | Read Register B: 0 | Data: 0
# Time: 685000 | Write to Register: 4 | Data: 4
# Time: 695000 | Read Register A: 1 | Data: 1
# Time: 695000 | Read Register B: 0 | Data: 0
# Time: 705000 | Read Register A: 4 | Data: 4
# Time: 705000 | Read Register B: 2 | Data: 0
# Time: 715000 | Read Register A: 2 | Data: 0
# Time: 715000 | Read Register B: 2 | Data: 0
# Time: 715000 | Write to Register: 2 | Data: 0
# Time: 725000 | Read Register A: x | Data: x
# Time: 725000 | Read Register B: x | Data: x
# Time: 735000 | Read Register A: x | Data: x
# Time: 735000 | Read Register B: x | Data: x
# Time: 745000 | Read Register A: x | Data: x
# Time: 745000 | Read Register B: x | Data: x
# Time: 755000 | Read Register A: x | Data: x
# Time: 755000 | Read Register B: x | Data: x
# Time: 765000 | Read Register A: x | Data: x
# Time: 765000 | Read Register B: x | Data: x
# Time: 775000 | Read Register A: x | Data: x
# Time: 775000 | Read Register B: x | Data: x
# Time: 785000 | Read Register A: x | Data: x
# Time: 785000 | Read Register B: x | Data: x
# Time: 795000 | Read Register A: x | Data: x
# Time: 795000 | Read Register B: x | Data: x
# Time: 805000 | Read Register A: x | Data: x
# Time: 805000 | Read Register B: x | Data: x
# Time: 815000 | Read Register A: x | Data: x
# Time: 815000 | Read Register B: x | Data: x
# Time: 825000 | Read Register A: x | Data: x
# Time: 825000 | Read Register B: x | Data: x
# Time: 835000 | Read Register A: x | Data: x
# Time: 835000 | Read Register B: x | Data: x
# Time: 845000 | Read Register A: x | Data: x
# Time: 845000 | Read Register B: x | Data: x
# Time: 855000 | Read Register A: x | Data: x
# Time: 855000 | Read Register B: x | Data: x
# Time: 865000 | Read Register A: x | Data: x
# Time: 865000 | Read Register B: x | Data: x
# Time: 875000 | Read Register A: x | Data: x
# Time: 875000 | Read Register B: x | Data: x
# Time: 885000 | Read Register A: x | Data: x
# Time: 885000 | Read Register B: x | Data: x
# Time: 895000 | Read Register A: x | Data: x
# Time: 895000 | Read Register B: x | Data: x
# Time: 905000 | Read Register A: x | Data: x
# Time: 905000 | Read Register B: x | Data: x
# Time: 915000 | Read Register A: x | Data: x
# Time: 915000 | Read Register B: x | Data: x
# Time: 925000 | Read Register A: x | Data: x
# Time: 925000 | Read Register B: x | Data: x
# Time: 935000 | Read Register A: x | Data: x
# Time: 935000 | Read Register B: x | Data: x
# Time: 945000 | Read Register A: x | Data: x
# Time: 945000 | Read Register B: x | Data: x
# Time: 955000 | Read Register A: x | Data: x
# Time: 955000 | Read Register B: x | Data: x
# Time: 965000 | Read Register A: x | Data: x
# Time: 965000 | Read Register B: x | Data: x
# Time: 975000 | Read Register A: x | Data: x
# Time: 975000 | Read Register B: x | Data: x
# Time: 985000 | Read Register A: x | Data: x
# Time: 985000 | Read Register B: x | Data: x
# Time: 995000 | Read Register A: x | Data: x
# Time: 995000 | Read Register B: x | Data: x
# Time: 1005000 | Read Register A: x | Data: x
# Time: 1005000 | Read Register B: x | Data: x
# Time: 1015000 | Read Register A: x | Data: x
# Time: 1015000 | Read Register B: x | Data: x
# Time: 1025000 | Read Register A: x | Data: x
# Time: 1025000 | Read Register B: x | Data: x
# Time: 1035000 | Read Register A: x | Data: x
# Time: 1035000 | Read Register B: x | Data: x
# Time: 1045000 | Read Register A: x | Data: x
# Time: 1045000 | Read Register B: x | Data: x
# Time: 1055000 | Read Register A: x | Data: x
# Time: 1055000 | Read Register B: x | Data: x
# Time: 1065000 | Read Register A: x | Data: x
# Time: 1065000 | Read Register B: x | Data: x
# Time: 1075000 | Read Register A: x | Data: x
# Time: 1075000 | Read Register B: x | Data: x
# Time: 1085000 | Read Register A: x | Data: x
# Time: 1085000 | Read Register B: x | Data: x
# Time: 1095000 | Read Register A: x | Data: x
# Time: 1095000 | Read Register B: x | Data: x
# Time: 1105000 | Read Register A: x | Data: x
# Time: 1105000 | Read Register B: x | Data: x
# Time: 1115000 | Read Register A: x | Data: x
# Time: 1115000 | Read Register B: x | Data: x
# Time: 1125000 | Read Register A: x | Data: x
# Time: 1125000 | Read Register B: x | Data: x
# Time: 1135000 | Read Register A: x | Data: x
# Time: 1135000 | Read Register B: x | Data: x
# Time: 1145000 | Read Register A: x | Data: x
# Time: 1145000 | Read Register B: x | Data: x
# Time: 1155000 | Read Register A: x | Data: x
# Time: 1155000 | Read Register B: x | Data: x
# Time: 1165000 | Read Register A: x | Data: x
# Time: 1165000 | Read Register B: x | Data: x
# Time: 1175000 | Read Register A: x | Data: x
# Time: 1175000 | Read Register B: x | Data: x
# Time: 1185000 | Read Register A: x | Data: x
# Time: 1185000 | Read Register B: x | Data: x
# Time: 1195000 | Read Register A: x | Data: x
# Time: 1195000 | Read Register B: x | Data: x
# Time: 1205000 | Read Register A: x | Data: x
# Time: 1205000 | Read Register B: x | Data: x
# Time: 1215000 | Read Register A: x | Data: x
# Time: 1215000 | Read Register B: x | Data: x
# Time: 1225000 | Read Register A: x | Data: x
# Time: 1225000 | Read Register B: x | Data: x
# Time: 1235000 | Read Register A: x | Data: x
# Time: 1235000 | Read Register B: x | Data: x
# Time: 1245000 | Read Register A: x | Data: x
# Time: 1245000 | Read Register B: x | Data: x
# Time: 1255000 | Read Register A: x | Data: x
# Time: 1255000 | Read Register B: x | Data: x
# Time: 1265000 | Read Register A: x | Data: x
# Time: 1265000 | Read Register B: x | Data: x
# Time: 1275000 | Read Register A: x | Data: x
# Time: 1275000 | Read Register B: x | Data: x
# Time: 1285000 | Read Register A: x | Data: x
# Time: 1285000 | Read Register B: x | Data: x
# Time: 1295000 | Read Register A: x | Data: x
# Time: 1295000 | Read Register B: x | Data: x
# Time: 1305000 | Read Register A: 5 | Data: 5
# Time: 1305000 | Read Register B: 0 | Data: 0
# Time: 1305000 | Write to Register: 5 | Data: 5
# Time: 1315000 | Read Register A: 1 | Data: 1
# Time: 1315000 | Read Register B: 4 | Data: 4
# Time: 1315000 | Write to Register: 1 | Data: 5
# Time: 1325000 | Read Register A: 4 | Data: 4
# Time: 1325000 | Read Register B: 0 | Data: 0
# Time: 1325000 | Write to Register: 4 | Data: 4
# Time: 1335000 | Read Register A: 1 | Data: 5
# Time: 1335000 | Read Register B: 0 | Data: 0
# Time: 1345000 | Read Register A: 4 | Data: 4
# Time: 1345000 | Read Register B: 2 | Data: 0
# Time: 1355000 | Read Register A: 2 | Data: 0
# Time: 1355000 | Read Register B: 2 | Data: 0
# Time: 1355000 | Write to Register: 2 | Data: 0
# Time: 1365000 | Read Register A: x | Data: x
# Time: 1365000 | Read Register B: x | Data: x
# Time: 1375000 | Read Register A: x | Data: x
# Time: 1375000 | Read Register B: x | Data: x
# Time: 1385000 | Read Register A: x | Data: x
# Time: 1385000 | Read Register B: x | Data: x
# Time: 1395000 | Read Register A: x | Data: x
# Time: 1395000 | Read Register B: x | Data: x
# Time: 1405000 | Read Register A: x | Data: x
# Time: 1405000 | Read Register B: x | Data: x
# Time: 1415000 | Read Register A: x | Data: x
# Time: 1415000 | Read Register B: x | Data: x
# Time: 1425000 | Read Register A: x | Data: x
# Time: 1425000 | Read Register B: x | Data: x
# Time: 1435000 | Read Register A: x | Data: x
# Time: 1435000 | Read Register B: x | Data: x
# Time: 1445000 | Read Register A: x | Data: x
# Time: 1445000 | Read Register B: x | Data: x
# Time: 1455000 | Read Register A: x | Data: x
# Time: 1455000 | Read Register B: x | Data: x
# Time: 1465000 | Read Register A: x | Data: x
# Time: 1465000 | Read Register B: x | Data: x
# Time: 1475000 | Read Register A: x | Data: x
# Time: 1475000 | Read Register B: x | Data: x
# Time: 1485000 | Read Register A: x | Data: x
# Time: 1485000 | Read Register B: x | Data: x
# Time: 1495000 | Read Register A: x | Data: x
# Time: 1495000 | Read Register B: x | Data: x
# Time: 1505000 | Read Register A: x | Data: x
# Time: 1505000 | Read Register B: x | Data: x
# Time: 1515000 | Read Register A: x | Data: x
# Time: 1515000 | Read Register B: x | Data: x
# Time: 1525000 | Read Register A: x | Data: x
# Time: 1525000 | Read Register B: x | Data: x
# Time: 1535000 | Read Register A: x | Data: x
# Time: 1535000 | Read Register B: x | Data: x
# Time: 1545000 | Read Register A: x | Data: x
# Time: 1545000 | Read Register B: x | Data: x
# Time: 1555000 | Read Register A: x | Data: x
# Time: 1555000 | Read Register B: x | Data: x
# Time: 1565000 | Read Register A: x | Data: x
# Time: 1565000 | Read Register B: x | Data: x
# Time: 1575000 | Read Register A: x | Data: x
# Time: 1575000 | Read Register B: x | Data: x
# Time: 1585000 | Read Register A: x | Data: x
# Time: 1585000 | Read Register B: x | Data: x
# Time: 1595000 | Read Register A: x | Data: x
# Time: 1595000 | Read Register B: x | Data: x
# Time: 1605000 | Read Register A: x | Data: x
# Time: 1605000 | Read Register B: x | Data: x
# Time: 1615000 | Read Register A: x | Data: x
# Time: 1615000 | Read Register B: x | Data: x
# Time: 1625000 | Read Register A: x | Data: x
# Time: 1625000 | Read Register B: x | Data: x
# Time: 1635000 | Read Register A: x | Data: x
# Time: 1635000 | Read Register B: x | Data: x
# Time: 1645000 | Read Register A: x | Data: x
# Time: 1645000 | Read Register B: x | Data: x
# Time: 1655000 | Read Register A: x | Data: x
# Time: 1655000 | Read Register B: x | Data: x
# Time: 1665000 | Read Register A: x | Data: x
# Time: 1665000 | Read Register B: x | Data: x
# Time: 1675000 | Read Register A: x | Data: x
# Time: 1675000 | Read Register B: x | Data: x
# Time: 1685000 | Read Register A: x | Data: x
# Time: 1685000 | Read Register B: x | Data: x
# Time: 1695000 | Read Register A: x | Data: x
# Time: 1695000 | Read Register B: x | Data: x
# Time: 1705000 | Read Register A: x | Data: x
# Time: 1705000 | Read Register B: x | Data: x
# Time: 1715000 | Read Register A: x | Data: x
# Time: 1715000 | Read Register B: x | Data: x
# Time: 1725000 | Read Register A: x | Data: x
# Time: 1725000 | Read Register B: x | Data: x
# Time: 1735000 | Read Register A: x | Data: x
# Time: 1735000 | Read Register B: x | Data: x
# Time: 1745000 | Read Register A: x | Data: x
# Time: 1745000 | Read Register B: x | Data: x
# Time: 1755000 | Read Register A: x | Data: x
# Time: 1755000 | Read Register B: x | Data: x
# Time: 1765000 | Read Register A: x | Data: x
# Time: 1765000 | Read Register B: x | Data: x
# Time: 1775000 | Read Register A: x | Data: x
# Time: 1775000 | Read Register B: x | Data: x
# Time: 1785000 | Read Register A: x | Data: x
# Time: 1785000 | Read Register B: x | Data: x
# Time: 1795000 | Read Register A: x | Data: x
# Time: 1795000 | Read Register B: x | Data: x
# Time: 1805000 | Read Register A: x | Data: x
# Time: 1805000 | Read Register B: x | Data: x
# Time: 1815000 | Read Register A: x | Data: x
# Time: 1815000 | Read Register B: x | Data: x
# Time: 1825000 | Read Register A: x | Data: x
# Time: 1825000 | Read Register B: x | Data: x
# Time: 1835000 | Read Register A: x | Data: x
# Time: 1835000 | Read Register B: x | Data: x
# Time: 1845000 | Read Register A: x | Data: x
# Time: 1845000 | Read Register B: x | Data: x
# Time: 1855000 | Read Register A: x | Data: x
# Time: 1855000 | Read Register B: x | Data: x
# Time: 1865000 | Read Register A: x | Data: x
# Time: 1865000 | Read Register B: x | Data: x
# Time: 1875000 | Read Register A: x | Data: x
# Time: 1875000 | Read Register B: x | Data: x
# Time: 1885000 | Read Register A: x | Data: x
# Time: 1885000 | Read Register B: x | Data: x
# Time: 1895000 | Read Register A: x | Data: x
# Time: 1895000 | Read Register B: x | Data: x
# Time: 1905000 | Read Register A: x | Data: x
# Time: 1905000 | Read Register B: x | Data: x
# Time: 1915000 | Read Register A: x | Data: x
# Time: 1915000 | Read Register B: x | Data: x
# Time: 1925000 | Read Register A: x | Data: x
# Time: 1925000 | Read Register B: x | Data: x
# Time: 1935000 | Read Register A: x | Data: x
# Time: 1935000 | Read Register B: x | Data: x
# Time: 1945000 | Read Register A: 5 | Data: 5
# Time: 1945000 | Read Register B: 0 | Data: 0
# Time: 1945000 | Write to Register: 5 | Data: 5
# Time: 1955000 | Read Register A: 1 | Data: 5
# Time: 1955000 | Read Register B: 4 | Data: 4
# Time: 1955000 | Write to Register: 1 | Data: 1
# Time: 1965000 | Read Register A: 4 | Data: 4
# Time: 1965000 | Read Register B: 0 | Data: 0
# Time: 1965000 | Write to Register: 4 | Data: 4
# Time: 1975000 | Read Register A: 1 | Data: 1
# Time: 1975000 | Read Register B: 0 | Data: 0
# Time: 1985000 | Read Register A: 4 | Data: 4
# Time: 1985000 | Read Register B: 2 | Data: 0
# Time: 1995000 | Read Register A: 2 | Data: 0
# Time: 1995000 | Read Register B: 2 | Data: 0
# Time: 1995000 | Write to Register: 2 | Data: 0
# Time: 2005000 | Read Register A: x | Data: x
# Time: 2005000 | Read Register B: x | Data: x
# Time: 2015000 | Read Register A: x | Data: x
# Time: 2015000 | Read Register B: x | Data: x
# ** Note: $stop    : testbench.sv(29)
#    Time: 2020 ns  Iteration: 0  Instance: /Top_tb
# Break in Module Top_tb at testbench.sv line 29
# Stopped at testbench.sv line 29
# exit
# End time: 20:13:55 on Jun 10,2024, Elapsed time: 0:00:01
# Errors: 0, Warnings: 0
# *** Summary *********************************************
#     qrun: Errors:   0, Warnings:   0
#     vlog: Errors:   0, Warnings:   0
#     vopt: Errors:   0, Warnings:   1
#     vsim: Errors:   0, Warnings:   0
#   Totals: Errors:   0, Warnings:   1
